Learn_Chisel/NanjingExperiment/ex6ShiftReg/test_run_dir/Top_should_pass/Top.vcd
$date
2025-02-26T09:31+0000
$end
$version
0.2
$end
$comment

$end
$timescale 1ns  $end
$scope module Top $end
 $var wire 1 ! buttonDebounce $end
 $var wire 8 " io_seg_out $end
 $var wire 1 ) io_clk $end
 $var wire 1 + io_reset $end
 $var wire 1 - seg $end
 $var wire 1 1 clock $end
 $var wire 1 7 shiftreg $end
 $var wire 1 8 reset $end
 $var wire 1 9 io_btn $end
  $scope module buttonDebounce $end
   $var wire 1 $ clock $end
   $var wire 1 & io_btn_clk $end
   $var wire 1 ( btnDebReg $end
   $var wire 1 0 reset $end
   $var wire 1 3 io_btn $end
   $var wire 1 4 io_reset $end
   $var wire 1 6 btnLast $end
  $upscope $end
  $scope module shiftreg $end
   $var wire 1 # clock $end
   $var wire 8 % shiftreg $end
   $var wire 1 ' lfsr $end
   $var wire 1 , reset $end
   $var wire 8 / io_random_out $end
   $var wire 1 2 io_clk $end
   $var wire 1 5 io_reset $end
  $upscope $end
  $scope module seg $end
   $var wire 8 * io_in $end
   $var wire 8 . io_seg $end
  $upscope $end
$upscope $end
$enddefinitions $end
$dumpvars
04
b00000000 /
0&
05
0-
0'
b00000000 "
06
0!
00
b00000000 *
0(
07
01
0)
08
0#
09
b00000000 %
0+
02
0,
0$
03
b00000000 .
$end
#0
10
b00000011 "
b00000011 .
18
1,
#1
b11111111 %
b01110001 "
11
b01110001 .
1#
b00001111 *
1$
b11111111 /
#6
00
14
01
08
0#
15
0$
1+
0,
1)
#11
11
1#
1$
#16
01
0#
0$
0)
#21
11
1#
1$
#26
13
01
0#
19
0$
1)
#31
11
1&
1#
12
1$
16
1(
#36
01
0#
0$
0)
#41
b01111111 %
11
0&
1#
02
1$
0(
b01111111 /
#46
03
01
0#
09
0$
1)
#51
11
1#
1$
06
#56
01
0#
0$
0)
#61
11
1#
1$
#66
13
01
0#
19
0$
1)
#71
11
1&
1#
12
1$
16
1(
#76
01
0#
0$
0)
#81
b00111111 %
11
0&
1#
02
1$
0(
b00111111 /
#86
03
01
0#
09
0$
1)
#91
11
1#
1$
06
#96
01
0#
0$
0)
#101
11
1#
1$
#106
13
01
0#
19
0$
1)
#111
11
1&
1#
12
1$
16
1(
#116
01
0#
0$
0)
#121
b00011111 %
11
0&
1#
02
1$
0(
b00011111 /
#126
03
01
0#
09
0$
1)
#131
11
1#
1$
06
#136
01
0#
0$
0)
#141
11
1#
1$
#146
13
01
0#
19
0$
1)
#151
11
1&
1#
12
1$
16
1(
#156
01
0#
0$
0)
#161
b00001111 %
11
0&
1#
02
1'
1$
0(
b00001111 /
#166
03
01
0#
09
0$
1)
#171
11
1#
1$
06
#176
01
0#
0$
0)
#181
11
1#
1$
#186
13
01
0#
19
0$
1)
#191
11
1&
1#
12
1$
16
1(
#196
01
0#
0$
0)
#201
b10000111 %
b00011111 "
11
b00011111 .
0&
1#
02
b00000111 *
0'
1$
0(
b10000111 /
#206
03
01
0#
09
0$
1)
#211
11
1#
1$
06
#216
01
0#
0$
0)
#221
11
1#
1$
#226
13
01
0#
19
0$
1)
#231
11
1&
1#
12
1$
16
1(
#236
01
0#
0$
0)
#241
b01000011 %
b00001101 "
11
b00001101 .
0&
1#
02
b00000011 *
1'
1$
0(
b01000011 /
#246
03
01
0#
09
0$
1)
#251
11
1#
1$
06
#256
01
0#
0$
0)
#261
11
1#
1$
#266
13
01
0#
19
0$
1)
#271
11
1&
1#
12
1$
16
1(
#276
01
0#
0$
0)
#281
b10100001 %
b10011111 "
11
b10011111 .
0&
1#
02
b00000001 *
1$
0(
b10100001 /
#286
03
01
0#
09
0$
1)
#291
11
1#
1$
06
#296
01
0#
0$
0)
#301
11
1#
1$
#306
13
01
0#
19
0$
1)
#311
11
1&
1#
12
1$
16
1(
#316
01
0#
0$
0)
#321
b11010000 %
b00000011 "
11
b00000011 .
0&
1#
02
b00000000 *
1$
0(
b11010000 /
#326
03
01
0#
09
0$
1)
#331
11
1#
1$
06
#336
01
0#
0$
0)
#341
11
1#
1$
#346
13
01
0#
19
0$
1)
#351
11
1&
1#
12
1$
16
1(
#356
01
0#
0$
0)
#361
b11101000 %
b00000001 "
11
b00000001 .
0&
1#
02
b00001000 *
1$
0(
b11101000 /
#366
03
01
0#
09
0$
1)
#371
11
1#
1$
06
#376
01
0#
0$
0)
#381
11
1#
1$
#386
13
01
0#
19
0$
1)
#391
11
1&
1#
12
1$
16
1(
#396
01
0#
0$
0)
#401
b11110100 %
b10011001 "
11
b10011001 .
0&
1#
02
b00000100 *
0'
1$
0(
b11110100 /
#406
03
01
0#
09
0$
1)
#411
11
1#
1$
06
#416
01
0#
0$
0)
#421
11
1#
1$
#426
13
01
0#
19
0$
1)
#431
11
1&
1#
12
1$
16
1(
#436
01
0#
0$
0)
#441
b01111010 %
b00010001 "
11
b00010001 .
0&
1#
02
b00001010 *
1$
0(
b01111010 /
#446
03
01
0#
09
0$
1)
#451
11
1#
1$
06
#456
01
0#
0$
0)
#461
11
1#
1$
#466
13
01
0#
19
0$
1)
#471
11
1&
1#
12
1$
16
1(
#476
01
0#
0$
0)
#481
b00111101 %
b10000101 "
11
b10000101 .
0&
1#
02
b00001101 *
1$
0(
b00111101 /
#486
03
01
0#
09
0$
1)
#491
11
1#
1$
06
#496
01
0#
0$
0)
#501
11
1#
1$
#506
13
01
0#
19
0$
1)
#511
11
1&
1#
12
1$
16
1(
#516
01
0#
0$
0)
#521
b00011110 %
b01100001 "
11
b01100001 .
0&
1#
02
b00001110 *
1'
1$
0(
b00011110 /
#526
03
01
0#
09
0$
1)
#531
11
1#
1$
06
#536
01
0#
0$
0)
#541
11
1#
1$
#546
13
01
0#
19
0$
1)
#551
11
1&
1#
12
1$
16
1(
#556
01
0#
0$
0)
#561
b10001111 %
b01110001 "
11
b01110001 .
0&
1#
02
b00001111 *
1$
0(
b10001111 /
#566
03
01
0#
09
0$
1)
#571
11
1#
1$
06
#576
01
0#
0$
0)
#581
11
1#
1$
#586
13
01
0#
19
0$
1)
#591
11
1&
1#
12
1$
16
1(
#596
01
0#
0$
0)
#601
b11000111 %
b00011111 "
11
b00011111 .
0&
1#
02
b00000111 *
0'
1$
0(
b11000111 /
#606
03
01
0#
09
0$
1)
#611
11
1#
1$
06
#616
01
0#
0$
0)
#621
11
1#
1$
#626
13
01
0#
19
0$
1)
#631
11
1&
1#
12
1$
16
1(
#636
01
0#
0$
0)
#641
b01100011 %
b00001101 "
11
b00001101 .
0&
1#
02
b00000011 *
1'
1$
0(
b01100011 /
#646
03
01
0#
09
0$
1)
#651
11
1#
1$
06
#656
01
0#
0$
0)
#661
11
1#
1$
#666
13
01
0#
19
0$
1)
#671
11
1&
1#
12
1$
16
1(
#676
01
0#
0$
0)
#681
b10110001 %
b10011111 "
11
b10011111 .
0&
1#
02
b00000001 *
0'
1$
0(
b10110001 /
#686
03
01
0#
09
0$
1)
#691
11
1#
1$
06
#696
01
0#
0$
0)
#701
11
1#
1$
#706
13
01
0#
19
0$
1)
#711
11
1&
1#
12
1$
16
1(
#716
01
0#
0$
0)
#721
b01011000 %
b00000001 "
11
b00000001 .
0&
1#
02
b00001000 *
1$
0(
b01011000 /
#726
03
01
0#
09
0$
1)
#731
11
1#
1$
06
#736
01
0#
0$
0)
#741
11
1#
1$
#746
13
01
0#
19
0$
1)
#751
11
1&
1#
12
1$
16
1(
#756
01
0#
0$
0)
#761
b00101100 %
b01100011 "
11
b01100011 .
0&
1#
02
b00001100 *
1$
0(
b00101100 /
#766
03
01
0#
09
0$
1)
#771
11
1#
1$
06
#776
01
0#
0$
0)
#781
11
1#
1$
#786
13
01
0#
19
0$
1)
#791
11
1&
1#
12
1$
16
1(
#796
01
0#
0$
0)
#801
b00010110 %
b01000001 "
11
b01000001 .
0&
1#
02
b00000110 *
1$
0(
b00010110 /
#806
03
01
0#
09
0$
1)
#811
11
1#
1$
06
#816
01
0#
0$
0)
#821
11
1#
1$
#826
13
01
0#
19
0$
1)
#831
11
1&
1#
12
1$
16
1(
#836
01
0#
0$
0)
#841
b00001011 %
b11000001 "
11
b11000001 .
0&
1#
02
b00001011 *
1$
0(
b00001011 /
#846
03
01
0#
09
0$
1)
#851
11
1#
1$
06
#856
01
0#
0$
0)
#861
11
1#
1$
#866
13
01
0#
19
0$
1)
#871
11
1&
1#
12
1$
16
1(
#876
01
0#
0$
0)
#881
b00000101 %
b01001001 "
11
b01001001 .
0&
1#
02
b00000101 *
1$
0(
b00000101 /
#886
03
01
0#
09
0$
1)
#891
11
1#
1$
06
#896
01
0#
0$
0)
#901
11
1#
1$
#906
13
01
0#
19
0$
1)
#911
11
1&
1#
12
1$
16
1(
#916
01
0#
0$
0)
#921
b00000010 %
b00100101 "
11
b00100101 .
0&
1#
02
b00000010 *
1$
0(
b00000010 /
#926
03
01
0#
09
0$
1)
#931
11
1#
1$
06
#936
01
0#
0$
0)
#941
11
1#
1$
#946
13
01
0#
19
0$
1)
#951
11
1&
1#
12
1$
16
1(
#956
01
0#
0$
0)
#961
b00000001 %
b10011111 "
11
b10011111 .
0&
1#
02
b00000001 *
1'
1$
0(
b00000001 /
#966
03
01
0#
09
0$
1)
#971
11
1#
1$
06
#976
01
0#
0$
0)
#981
11
1#
1$
#986
13
01
0#
19
0$
1)
#991
11
1&
1#
12
1$
16
1(
#996
01
0#
0$
0)
#1001
b10000000 %
b00000011 "
11
b00000011 .
0&
1#
02
b00000000 *
0'
1$
0(
b10000000 /
#1006
03
01
0#
09
0$
1)
#1011
11
1#
1$
06
#1016
01
0#
0$
0)
#1021
11
1#
1$
#1026
13
01
0#
19
0$
1)
#1031
11
1&
1#
12
1$
16
1(
#1036
01
0#
0$
0)
#1041
b01000000 %
11
0&
1#
02
1$
0(
b01000000 /
#1046
03
01
0#
09
0$
1)
#1051
11
1#
1$
06
#1056
01
0#
0$
0)
#1061
11
1#
1$
#1066
13
01
0#
19
0$
1)
#1071
11
1&
1#
12
1$
16
1(
#1076
01
0#
0$
0)
#1081
b00100000 %
11
0&
1#
02
1$
0(
b00100000 /
#1086
03
01
0#
09
0$
1)
#1091
11
1#
1$
06
#1096
01
0#
0$
0)
#1101
11
1#
1$
#1106
13
01
0#
19
0$
1)
#1111
11
1&
1#
12
1$
16
1(
#1116
01
0#
0$
0)
#1121
b00010000 %
11
0&
1#
02
1'
1$
0(
b00010000 /
#1126
03
01
0#
09
0$
1)
#1131
11
1#
1$
06
#1136
01
0#
0$
0)
#1141
11
1#
1$
#1146
13
01
0#
19
0$
1)
#1151
11
1&
1#
12
1$
16
1(
#1156
01
0#
0$
0)
#1161
b10001000 %
b00000001 "
11
b00000001 .
0&
1#
02
b00001000 *
1$
0(
b10001000 /
#1166
03
01
0#
09
0$
1)
#1171
11
1#
1$
06
#1176
01
0#
0$
0)
#1181
11
1#
1$
#1186
13
01
0#
19
0$
1)
#1191
11
1&
1#
12
1$
16
1(
#1196
01
0#
0$
0)
#1201
b11000100 %
b10011001 "
11
b10011001 .
0&
1#
02
b00000100 *
1$
0(
b11000100 /
#1206
03
01
0#
09
0$
1)
#1211
11
1#
1$
06
#1216
01
0#
0$
0)
#1221
11
1#
1$
#1226
13
01
0#
19
0$
1)
#1231
11
1&
1#
12
1$
16
1(
#1236
01
0#
0$
0)
#1241
b11100010 %
b00100101 "
11
b00100101 .
0&
1#
02
b00000010 *
0'
1$
0(
b11100010 /
#1246
03
01
0#
09
0$
1)
#1251
11
1#
1$
06
#1256
01
0#
0$
0)
#1261
11
1#
1$
#1266
13
01
0#
19
0$
1)
#1271
11
1&
1#
12
1$
16
1(
#1276
01
0#
0$
0)
#1281
b01110001 %
b10011111 "
11
b10011111 .
0&
1#
02
b00000001 *
1$
0(
b01110001 /
#1286
03
01
0#
09
0$
1)
#1291
11
1#
1$
06
#1296
01
0#
0$
0)
#1301
11
1#
1$
#1306
13
01
0#
19
0$
1)
#1311
11
1&
1#
12
1$
16
1(
#1316
01
0#
0$
0)
#1321
b00111000 %
b00000001 "
11
b00000001 .
0&
1#
02
b00001000 *
1$
0(
b00111000 /
#1326
03
01
0#
09
0$
1)
#1331
11
1#
1$
06
#1336
01
0#
0$
0)
#1341
11
1#
1$
#1346
13
01
0#
19
0$
1)
#1351
11
1&
1#
12
1$
16
1(
#1356
01
0#
0$
0)
#1361
b00011100 %
b01100011 "
11
b01100011 .
0&
1#
02
b00001100 *
1'
1$
0(
b00011100 /
#1366
03
01
0#
09
0$
1)
#1371
11
1#
1$
06
#1376
01
0#
0$
0)
#1381
11
1#
1$
#1386
13
01
0#
19
0$
1)
#1391
11
1&
1#
12
1$
16
1(
#1396
01
0#
0$
0)
#1401
b10001110 %
b01100001 "
11
b01100001 .
0&
1#
02
b00001110 *
0'
1$
0(
b10001110 /
#1406
03
01
0#
09
0$
1)
#1411
11
1#
1$
06
#1416
01
0#
0$
0)
#1421
11
1#
1$
#1426
13
01
0#
19
0$
1)
#1431
11
1&
1#
12
1$
16
1(
#1436
01
0#
0$
0)
#1441
b01000111 %
b00011111 "
11
b00011111 .
0&
1#
02
b00000111 *
1$
0(
b01000111 /
#1446
03
01
0#
09
0$
1)
#1451
11
1#
1$
06
#1456
01
0#
0$
0)
#1461
11
1#
1$
#1466
13
01
0#
19
0$
1)
#1471
11
1&
1#
12
1$
16
1(
#1476
01
0#
0$
0)
#1481
b00100011 %
b00001101 "
11
b00001101 .
0&
1#
02
b00000011 *
1'
1$
0(
b00100011 /
#1486
03
01
0#
09
0$
1)
#1491
11
1#
1$
06
#1496
01
0#
0$
0)
#1501
11
1#
1$
#1506
13
01
0#
19
0$
1)
#1511
11
1&
1#
12
1$
16
1(
#1516
01
0#
0$
0)
#1521
b10010001 %
b10011111 "
11
b10011111 .
0&
1#
02
b00000001 *
0'
1$
0(
b10010001 /
#1526
03
01
0#
09
0$
1)
#1531
11
1#
1$
06
#1536
01
0#
0$
0)
#1541
11
1#
1$
#1546
13
01
0#
19
0$
1)
#1551
11
1&
1#
12
1$
16
1(
#1556
01
0#
0$
0)
#1561
b01001000 %
b00000001 "
11
b00000001 .
0&
1#
02
b00001000 *
1'
1$
0(
b01001000 /
#1566
03
01
0#
09
0$
1)
#1571
11
1#
1$
06
#1576
01
0#
0$
0)
#1581
11
1#
1$
#1586
13
01
0#
19
0$
1)
#1591
11
1&
1#
12
1$
16
1(
#1596
01
0#
0$
0)
#1601
b10100100 %
b10011001 "
11
b10011001 .
0&
1#
02
b00000100 *
1$
0(
b10100100 /
#1606
03
01
0#
09
0$
1)
#1611
11
1#
1$
06
#1616
01
0#
0$
0)
#1621
11
1#
1$
#1626
13
01
0#
19
0$
1)
#1631
11
1&
1#
12
1$
16
1(
#1636
01
0#
0$
0)
#1641
b11010010 %
b00100101 "
11
b00100101 .
0&
1#
02
b00000010 *
1$
0(
b11010010 /
#1646
03
01
0#
09
0$
1)
#1651
11
1#
1$
06
#1656
01
0#
0$
0)
#1661
11
1#
1$
#1666
13
01
0#
19
0$
1)
#1671
11
1&
1#
12
1$
16
1(
#1676
01
0#
0$
0)
#1681
b11101001 %
b00001001 "
11
b00001001 .
0&
1#
02
b00001001 *
0'
1$
0(
b11101001 /
#1686
03
01
0#
09
0$
1)
#1691
11
1#
1$
06
#1696
01
0#
0$
0)
#1701
11
1#
1$
#1706
13
01
0#
19
0$
1)
#1711
11
1&
1#
12
1$
16
1(
#1716
01
0#
0$
0)
#1721
b01110100 %
b10011001 "
11
b10011001 .
0&
1#
02
b00000100 *
1$
0(
b01110100 /
#1726
03
01
0#
09
0$
1)
#1731
11
1#
1$
06
#1736
01
0#
0$
0)
#1741
11
1#
1$
#1746
13
01
0#
19
0$
1)
#1751
11
1&
1#
12
1$
16
1(
#1756
01
0#
0$
0)
#1761
b00111010 %
b00010001 "
11
b00010001 .
0&
1#
02
b00001010 *
1$
0(
b00111010 /
#1766
03
01
0#
09
0$
1)
#1771
11
1#
1$
06
#1776
01
0#
0$
0)
#1781
11
1#
1$
#1786
13
01
0#
19
0$
1)
#1791
11
1&
1#
12
1$
16
1(
#1796
01
0#
0$
0)
#1801
b00011101 %
b10000101 "
11
b10000101 .
0&
1#
02
b00001101 *
1$
0(
b00011101 /
#1806
03
01
0#
09
0$
1)
#1811
11
1#
1$
06
#1816
01
0#
0$
0)
#1821
11
1#
1$
#1826
13
01
0#
19
0$
1)
#1831
11
1&
1#
12
1$
16
1(
#1836
01
0#
0$
0)
#1841
b00001110 %
b01100001 "
11
b01100001 .
0&
1#
02
b00001110 *
1$
0(
b00001110 /
#1846
03
01
0#
09
0$
1)
#1851
11
1#
1$
06
#1856
01
0#
0$
0)
#1861
11
1#
1$
#1866
13
01
0#
19
0$
1)
#1871
11
1&
1#
12
1$
16
1(
#1876
01
0#
0$
0)
#1881
b00000111 %
b00011111 "
11
b00011111 .
0&
1#
02
b00000111 *
1$
0(
b00000111 /
#1886
03
01
0#
09
0$
1)
#1891
11
1#
1$
06
#1896
01
0#
0$
0)
#1901
11
1#
1$
#1906
13
01
0#
19
0$
1)
#1911
11
1&
1#
12
1$
16
1(
#1916
01
0#
0$
0)
#1921
b00000011 %
b00001101 "
11
b00001101 .
0&
1#
02
b00000011 *
1'
1$
0(
b00000011 /
#1926
03
01
0#
09
0$
1)
#1931
11
1#
1$
06
#1936
01
0#
0$
0)
#1941
11
1#
1$
#1946
13
01
0#
19
0$
1)
#1951
11
1&
1#
12
1$
16
1(
#1956
01
0#
0$
0)
#1961
b10000001 %
b10011111 "
11
b10011111 .
0&
1#
02
b00000001 *
1$
0(
b10000001 /
#1966
03
01
0#
09
0$
1)
#1971
11
1#
1$
06
#1976
01
0#
0$
0)
#1981
11
1#
1$
#1986
13
01
0#
19
0$
1)
#1991
11
1&
1#
12
1$
16
1(
#1996
01
0#
0$
0)
#2001
b11000000 %
b00000011 "
11
b00000011 .
0&
1#
02
b00000000 *
0'
1$
0(
b11000000 /
#2006
03
01
0#
09
0$
0+
