Learn_Chisel/NanjingExperiment/ex6ShiftReg/test_run_dir/Top_should_pass/Top.vcd
$date
2025-02-11T06:30+0000
$end
$version
0.2
$end
$comment

$end
$timescale 1ns  $end
$scope module Top $end
 $var wire 8 ! io_seg_out $end
 $var wire 1 % io_clk $end
 $var wire 1 ' io_reset $end
 $var wire 1 ) seg $end
 $var wire 1 , clock $end
 $var wire 1 / shiftreg $end
 $var wire 1 0 reset $end
  $scope module shiftreg $end
   $var wire 1 " clock $end
   $var wire 8 # shiftreg $end
   $var wire 1 $ lfsr $end
   $var wire 1 ( reset $end
   $var wire 8 + io_random_out $end
   $var wire 1 - io_clk $end
   $var wire 1 . io_reset $end
  $upscope $end
  $scope module seg $end
   $var wire 8 & io_in $end
   $var wire 8 * io_seg $end
  $upscope $end
$upscope $end
$enddefinitions $end
$dumpvars
0%
0-
b00000000 !
0'
0.
0/
b00000000 #
b00000000 *
00
0(
b00000000 +
0"
0)
b00000000 &
0,
0$
$end
#0
b00000011 !
10
b00000011 *
1(
#1
b01110001 !
1"
b00001111 &
b11111111 #
b01110001 *
b11111111 +
1,
#6
00
1-
1%
0"
0.
0'
0(
0,
#11
1"
b01111111 #
b01111111 +
1,
#16
0-
0%
0"
0,
#21
1"
1,
#26
1-
1%
0"
0,
#31
1"
b00111111 #
b00111111 +
1,
#36
0-
0%
0"
0,
#41
1"
1,
#46
1-
1%
0"
0,
#51
1"
b00011111 #
b00011111 +
1,
#56
0-
0%
0"
0,
#61
1"
1,
#66
1-
1%
0"
0,
#71
1"
b00001111 #
1$
b00001111 +
1,
#76
0-
0%
0"
0,
#81
1"
1,
#86
1-
1%
0"
0,
#91
b00011111 !
1"
b00000111 &
b10000111 #
b00011111 *
0$
b10000111 +
1,
#96
0-
0%
0"
0,
#101
1"
1,
#106
1-
1%
0"
0,
#111
b00001101 !
1"
b00000011 &
b01000011 #
b00001101 *
1$
b01000011 +
1,
#116
0-
0%
0"
0,
#121
1"
1,
#126
1-
1%
0"
0,
#131
b10011111 !
1"
b00000001 &
b10100001 #
b10011111 *
b10100001 +
1,
#136
0-
0%
0"
0,
#141
1"
1,
#146
1-
1%
0"
0,
#151
b00000011 !
1"
b00000000 &
b11010000 #
b00000011 *
b11010000 +
1,
#156
0-
0%
0"
0,
#161
1"
1,
#166
1-
1%
0"
0,
#171
b00000001 !
1"
b00001000 &
b11101000 #
b00000001 *
b11101000 +
1,
#176
0-
0%
0"
0,
#181
1"
1,
#186
1-
1%
0"
0,
#191
b10011001 !
1"
b00000100 &
b11110100 #
b10011001 *
0$
b11110100 +
1,
