Learn_Chisel/NanjingExperiment/ex3ALU/test_run_dir/Alu_should_pass/Alu.vcd
$date
2025-02-11T03:03+0000
$end
$version
0.2
$end
$comment

$end
$timescale 1ns  $end
$scope module Alu $end
 $var wire 1 ! carry $end
 $var wire 3 " io_op $end
 $var wire 1 # io_zero $end
 $var wire 4 $ result $end
 $var wire 5 % diff $end
 $var wire 1 & overflow $end
 $var wire 4 ' io_b $end
 $var wire 1 ( io_carry $end
 $var wire 1 ) clock $end
 $var wire 4 * io_result $end
 $var wire 5 + sum $end
 $var wire 1 , io_overflow $end
 $var wire 4 - io_a $end
 $var wire 1 . reset $end
$upscope $end
$enddefinitions $end
$dumpvars
b000 "
b0000 '
0&
b00000 %
0.
0!
0(
b0000 *
b0000 $
0)
0#
b0000 -
0,
b00000 +
$end
#0
1.
1#
#1
1)
#6
1!
b1000 -
b00000 %
0.
1&
1#
b0000 *
b1000 '
b0000 $
b10000 +
1(
1,
0)
#11
1)
#16
b11111 %
0#
b0001 *
b1001 '
b0001 $
b10001 +
0)
#21
1)
#26
b11110 %
b0010 *
b1010 '
b0010 $
b10010 +
0)
#31
1)
#36
b11101 %
b0011 *
b1011 '
b0011 $
b10011 +
0)
#41
1)
#46
b11100 %
b0100 *
b1100 '
b0100 $
b10100 +
0)
#51
1)
#56
b11011 %
b0101 *
b1101 '
b0101 $
b10101 +
0)
#61
1)
#66
b11010 %
b0110 *
b1110 '
b0110 $
b10110 +
0)
#71
1)
#76
b11001 %
b0111 *
b1111 '
b0111 $
b10111 +
0)
#81
1)
#86
b11000 %
0&
b1000 *
b0000 '
b1000 $
b11000 +
0,
0)
#91
1)
#96
b10111 %
b1001 *
b0001 '
b1001 $
b11001 +
0)
#101
1)
#106
b10110 %
b1010 *
b0010 '
b1010 $
b11010 +
0)
#111
1)
#116
b10101 %
b1011 *
b0011 '
b1011 $
b11011 +
0)
#121
1)
#126
b10100 %
b1100 *
b0100 '
b1100 $
b11100 +
0)
#131
1)
#136
b10011 %
b1101 *
b0101 '
b1101 $
b11101 +
0)
#141
1)
#146
b10010 %
b1110 *
b0110 '
b1110 $
b11110 +
0)
#151
1)
#156
b10001 %
b1111 *
b0111 '
b1111 $
b11111 +
0)
#161
1)
#166
1!
b1001 -
b00001 %
1&
0#
b0001 *
b1000 '
b0001 $
b10001 +
1(
1,
0)
#171
1)
#176
b00000 %
b0010 *
b1001 '
b0010 $
b10010 +
0)
#181
1)
#186
b11111 %
b0011 *
b1010 '
b0011 $
b10011 +
0)
#191
1)
#196
b11110 %
b0100 *
b1011 '
b0100 $
b10100 +
0)
#201
1)
#206
b11101 %
b0101 *
b1100 '
b0101 $
b10101 +
0)
#211
1)
#216
b11100 %
b0110 *
b1101 '
b0110 $
b10110 +
0)
#221
1)
#226
b11011 %
b0111 *
b1110 '
b0111 $
b10111 +
0)
#231
1)
#236
b11010 %
0&
b1000 *
b1111 '
b1000 $
b11000 +
0,
0)
#241
1)
#246
b11001 %
b1001 *
b0000 '
b1001 $
b11001 +
0)
#251
1)
#256
b11000 %
b1010 *
b0001 '
b1010 $
b11010 +
0)
#261
1)
#266
b10111 %
b1011 *
b0010 '
b1011 $
b11011 +
0)
#271
1)
#276
b10110 %
b1100 *
b0011 '
b1100 $
b11100 +
0)
#281
1)
#286
b10101 %
b1101 *
b0100 '
b1101 $
b11101 +
0)
#291
1)
#296
b10100 %
b1110 *
b0101 '
b1110 $
b11110 +
0)
#301
1)
#306
b10011 %
b1111 *
b0110 '
b1111 $
b11111 +
0)
#311
1)
#316
0!
b10010 %
1#
b0000 *
b0111 '
b0000 $
b00000 +
0(
0)
#321
1)
#326
1!
b1010 -
b00010 %
1&
0#
b0010 *
b1000 '
b0010 $
b10010 +
1(
1,
0)
#331
1)
#336
b00001 %
b0011 *
b1001 '
b0011 $
b10011 +
0)
#341
1)
#346
b00000 %
b0100 *
b1010 '
b0100 $
b10100 +
0)
#351
1)
#356
b11111 %
b0101 *
b1011 '
b0101 $
b10101 +
0)
#361
1)
#366
b11110 %
b0110 *
b1100 '
b0110 $
b10110 +
0)
#371
1)
#376
b11101 %
b0111 *
b1101 '
b0111 $
b10111 +
0)
#381
1)
#386
b11100 %
0&
b1000 *
b1110 '
b1000 $
b11000 +
0,
0)
#391
1)
#396
b11011 %
b1001 *
b1111 '
b1001 $
b11001 +
0)
#401
1)
#406
b11010 %
b1010 *
b0000 '
b1010 $
b11010 +
0)
#411
1)
#416
b11001 %
b1011 *
b0001 '
b1011 $
b11011 +
0)
#421
1)
#426
b11000 %
b1100 *
b0010 '
b1100 $
b11100 +
0)
#431
1)
#436
b10111 %
b1101 *
b0011 '
b1101 $
b11101 +
0)
#441
1)
#446
b10110 %
b1110 *
b0100 '
b1110 $
b11110 +
0)
#451
1)
#456
b10101 %
b1111 *
b0101 '
b1111 $
b11111 +
0)
#461
1)
#466
0!
b10100 %
1#
b0000 *
b0110 '
b0000 $
b00000 +
0(
0)
#471
1)
#476
b10011 %
0#
b0001 *
b0111 '
b0001 $
b00001 +
0)
#481
1)
#486
1!
b1011 -
b00011 %
1&
b0011 *
b1000 '
b0011 $
b10011 +
1(
1,
0)
#491
1)
#496
b00010 %
b0100 *
b1001 '
b0100 $
b10100 +
0)
#501
1)
#506
b00001 %
b0101 *
b1010 '
b0101 $
b10101 +
0)
#511
1)
#516
b00000 %
b0110 *
b1011 '
b0110 $
b10110 +
0)
#521
1)
#526
b11111 %
b0111 *
b1100 '
b0111 $
b10111 +
0)
#531
1)
#536
b11110 %
0&
b1000 *
b1101 '
b1000 $
b11000 +
0,
0)
#541
1)
#546
b11101 %
b1001 *
b1110 '
b1001 $
b11001 +
0)
#551
1)
#556
b11100 %
b1010 *
b1111 '
b1010 $
b11010 +
0)
#561
1)
#566
b11011 %
b1011 *
b0000 '
b1011 $
b11011 +
0)
#571
1)
#576
b11010 %
b1100 *
b0001 '
b1100 $
b11100 +
0)
#581
1)
#586
b11001 %
b1101 *
b0010 '
b1101 $
b11101 +
0)
#591
1)
#596
b11000 %
b1110 *
b0011 '
b1110 $
b11110 +
0)
#601
1)
#606
b10111 %
b1111 *
b0100 '
b1111 $
b11111 +
0)
#611
1)
#616
0!
b10110 %
1#
b0000 *
b0101 '
b0000 $
b00000 +
0(
0)
#621
1)
#626
b10101 %
0#
b0001 *
b0110 '
b0001 $
b00001 +
0)
#631
1)
#636
b10100 %
b0010 *
b0111 '
b0010 $
b00010 +
0)
#641
1)
#646
1!
b1100 -
b00100 %
1&
b0100 *
b1000 '
b0100 $
b10100 +
1(
1,
0)
#651
1)
#656
b00011 %
b0101 *
b1001 '
b0101 $
b10101 +
0)
#661
1)
#666
b00010 %
b0110 *
b1010 '
b0110 $
b10110 +
0)
#671
1)
#676
b00001 %
b0111 *
b1011 '
b0111 $
b10111 +
0)
#681
1)
#686
b00000 %
0&
b1000 *
b1100 '
b1000 $
b11000 +
0,
0)
#691
1)
#696
b11111 %
b1001 *
b1101 '
b1001 $
b11001 +
0)
#701
1)
#706
b11110 %
b1010 *
b1110 '
b1010 $
b11010 +
0)
#711
1)
#716
b11101 %
b1011 *
b1111 '
b1011 $
b11011 +
0)
#721
1)
#726
b11100 %
b1100 *
b0000 '
b1100 $
b11100 +
0)
#731
1)
#736
b11011 %
b1101 *
b0001 '
b1101 $
b11101 +
0)
#741
1)
#746
b11010 %
b1110 *
b0010 '
b1110 $
b11110 +
0)
#751
1)
#756
b11001 %
b1111 *
b0011 '
b1111 $
b11111 +
0)
#761
1)
#766
0!
b11000 %
1#
b0000 *
b0100 '
b0000 $
b00000 +
0(
0)
#771
1)
#776
b10111 %
0#
b0001 *
b0101 '
b0001 $
b00001 +
0)
#781
1)
#786
b10110 %
b0010 *
b0110 '
b0010 $
b00010 +
0)
#791
1)
#796
b10101 %
b0011 *
b0111 '
b0011 $
b00011 +
0)
#801
1)
#806
1!
b1101 -
b00101 %
1&
b0101 *
b1000 '
b0101 $
b10101 +
1(
1,
0)
#811
1)
#816
b00100 %
b0110 *
b1001 '
b0110 $
b10110 +
0)
#821
1)
#826
b00011 %
b0111 *
b1010 '
b0111 $
b10111 +
0)
#831
1)
#836
b00010 %
0&
b1000 *
b1011 '
b1000 $
b11000 +
0,
0)
#841
1)
#846
b00001 %
b1001 *
b1100 '
b1001 $
b11001 +
0)
#851
1)
#856
b00000 %
b1010 *
b1101 '
b1010 $
b11010 +
0)
#861
1)
#866
b11111 %
b1011 *
b1110 '
b1011 $
b11011 +
0)
#871
1)
#876
b11110 %
b1100 *
b1111 '
b1100 $
b11100 +
0)
#881
1)
#886
b11101 %
b1101 *
b0000 '
b1101 $
b11101 +
0)
#891
1)
#896
b11100 %
b1110 *
b0001 '
b1110 $
b11110 +
0)
#901
1)
#906
b11011 %
b1111 *
b0010 '
b1111 $
b11111 +
0)
#911
1)
#916
0!
b11010 %
1#
b0000 *
b0011 '
b0000 $
b00000 +
0(
0)
#921
1)
#926
b11001 %
0#
b0001 *
b0100 '
b0001 $
b00001 +
0)
#931
1)
#936
b11000 %
b0010 *
b0101 '
b0010 $
b00010 +
0)
#941
1)
#946
b10111 %
b0011 *
b0110 '
b0011 $
b00011 +
0)
#951
1)
#956
b10110 %
b0100 *
b0111 '
b0100 $
b00100 +
0)
#961
1)
#966
1!
b1110 -
b00110 %
1&
b0110 *
b1000 '
b0110 $
b10110 +
1(
1,
0)
#971
1)
#976
b00101 %
b0111 *
b1001 '
b0111 $
b10111 +
0)
#981
1)
#986
b00100 %
0&
b1000 *
b1010 '
b1000 $
b11000 +
0,
0)
#991
1)
#996
b00011 %
b1001 *
b1011 '
b1001 $
b11001 +
0)
#1001
1)
#1006
b00010 %
b1010 *
b1100 '
b1010 $
b11010 +
0)
#1011
1)
#1016
b00001 %
b1011 *
b1101 '
b1011 $
b11011 +
0)
#1021
1)
#1026
b00000 %
b1100 *
b1110 '
b1100 $
b11100 +
0)
#1031
1)
#1036
b11111 %
b1101 *
b1111 '
b1101 $
b11101 +
0)
#1041
1)
#1046
b11110 %
b1110 *
b0000 '
b1110 $
b11110 +
0)
#1051
1)
#1056
b11101 %
b1111 *
b0001 '
b1111 $
b11111 +
0)
#1061
1)
#1066
0!
b11100 %
1#
b0000 *
b0010 '
b0000 $
b00000 +
0(
0)
#1071
1)
#1076
b11011 %
0#
b0001 *
b0011 '
b0001 $
b00001 +
0)
#1081
1)
#1086
b11010 %
b0010 *
b0100 '
b0010 $
b00010 +
0)
#1091
1)
#1096
b11001 %
b0011 *
b0101 '
b0011 $
b00011 +
0)
#1101
1)
#1106
b11000 %
b0100 *
b0110 '
b0100 $
b00100 +
0)
#1111
1)
#1116
b10111 %
b0101 *
b0111 '
b0101 $
b00101 +
0)
#1121
1)
#1126
1!
b1111 -
b00111 %
1&
b0111 *
b1000 '
b0111 $
b10111 +
1(
1,
0)
#1131
1)
#1136
b00110 %
0&
b1000 *
b1001 '
b1000 $
b11000 +
0,
0)
#1141
1)
#1146
b00101 %
b1001 *
b1010 '
b1001 $
b11001 +
0)
#1151
1)
#1156
b00100 %
b1010 *
b1011 '
b1010 $
b11010 +
0)
#1161
1)
#1166
b00011 %
b1011 *
b1100 '
b1011 $
b11011 +
0)
#1171
1)
#1176
b00010 %
b1100 *
b1101 '
b1100 $
b11100 +
0)
#1181
1)
#1186
b00001 %
b1101 *
b1110 '
b1101 $
b11101 +
0)
#1191
1)
#1196
b00000 %
b1110 *
b1111 '
b1110 $
b11110 +
0)
#1201
1)
#1206
b11111 %
b1111 *
b0000 '
b1111 $
b11111 +
0)
#1211
1)
#1216
0!
b11110 %
1#
b0000 *
b0001 '
b0000 $
b00000 +
0(
0)
#1221
1)
#1226
b11101 %
0#
b0001 *
b0010 '
b0001 $
b00001 +
0)
#1231
1)
#1236
b11100 %
b0010 *
b0011 '
b0010 $
b00010 +
0)
#1241
1)
#1246
b11011 %
b0011 *
b0100 '
b0011 $
b00011 +
0)
#1251
1)
#1256
b11010 %
b0100 *
b0101 '
b0100 $
b00100 +
0)
#1261
1)
#1266
b11001 %
b0101 *
b0110 '
b0101 $
b00101 +
0)
#1271
1)
#1276
b11000 %
b0110 *
b0111 '
b0110 $
b00110 +
0)
#1281
1)
#1286
1!
b0000 -
b01000 %
b1000 *
b1000 '
b1000 $
b11000 +
1(
0)
#1291
1)
#1296
b00111 %
b1001 *
b1001 '
b1001 $
b11001 +
0)
#1301
1)
#1306
b00110 %
b1010 *
b1010 '
b1010 $
b11010 +
0)
#1311
1)
#1316
b00101 %
b1011 *
b1011 '
b1011 $
b11011 +
0)
#1321
1)
#1326
b00100 %
b1100 *
b1100 '
b1100 $
b11100 +
0)
#1331
1)
#1336
b00011 %
b1101 *
b1101 '
b1101 $
b11101 +
0)
#1341
1)
#1346
b00010 %
b1110 *
b1110 '
b1110 $
b11110 +
0)
#1351
1)
#1356
b00001 %
b1111 *
b1111 '
b1111 $
b11111 +
0)
#1361
1)
#1366
0!
b00000 %
1#
b0000 *
b0000 '
b0000 $
b00000 +
0(
0)
#1371
1)
#1376
b11111 %
0#
b0001 *
b0001 '
b0001 $
b00001 +
0)
#1381
1)
#1386
b11110 %
b0010 *
b0010 '
b0010 $
b00010 +
0)
#1391
1)
#1396
b11101 %
b0011 *
b0011 '
b0011 $
b00011 +
0)
#1401
1)
#1406
b11100 %
b0100 *
b0100 '
b0100 $
b00100 +
0)
#1411
1)
#1416
b11011 %
b0101 *
b0101 '
b0101 $
b00101 +
0)
#1421
1)
#1426
b11010 %
b0110 *
b0110 '
b0110 $
b00110 +
0)
#1431
1)
#1436
b11001 %
b0111 *
b0111 '
b0111 $
b00111 +
0)
#1441
1)
#1446
1!
b0001 -
b01001 %
0&
b1001 *
b1000 '
b1001 $
b11001 +
1(
0,
0)
#1451
1)
#1456
b01000 %
b1010 *
b1001 '
b1010 $
b11010 +
0)
#1461
1)
#1466
b00111 %
b1011 *
b1010 '
b1011 $
b11011 +
0)
#1471
1)
#1476
b00110 %
b1100 *
b1011 '
b1100 $
b11100 +
0)
#1481
1)
#1486
b00101 %
b1101 *
b1100 '
b1101 $
b11101 +
0)
#1491
1)
#1496
b00100 %
b1110 *
b1101 '
b1110 $
b11110 +
0)
#1501
1)
#1506
b00011 %
b1111 *
b1110 '
b1111 $
b11111 +
0)
#1511
1)
#1516
0!
b00010 %
1#
b0000 *
b1111 '
b0000 $
b00000 +
0(
0)
#1521
1)
#1526
b00001 %
0#
b0001 *
b0000 '
b0001 $
b00001 +
0)
#1531
1)
#1536
b00000 %
b0010 *
b0001 '
b0010 $
b00010 +
0)
#1541
1)
#1546
b11111 %
b0011 *
b0010 '
b0011 $
b00011 +
0)
#1551
1)
#1556
b11110 %
b0100 *
b0011 '
b0100 $
b00100 +
0)
#1561
1)
#1566
b11101 %
b0101 *
b0100 '
b0101 $
b00101 +
0)
#1571
1)
#1576
b11100 %
b0110 *
b0101 '
b0110 $
b00110 +
0)
#1581
1)
#1586
b11011 %
b0111 *
b0110 '
b0111 $
b00111 +
0)
#1591
1)
#1596
b11010 %
1&
b1000 *
b0111 '
b1000 $
b01000 +
1,
0)
#1601
1)
#1606
1!
b0010 -
b01010 %
0&
b1010 *
b1000 '
b1010 $
b11010 +
1(
0,
0)
#1611
1)
#1616
b01001 %
b1011 *
b1001 '
b1011 $
b11011 +
0)
#1621
1)
#1626
b01000 %
b1100 *
b1010 '
b1100 $
b11100 +
0)
#1631
1)
#1636
b00111 %
b1101 *
b1011 '
b1101 $
b11101 +
0)
#1641
1)
#1646
b00110 %
b1110 *
b1100 '
b1110 $
b11110 +
0)
#1651
1)
#1656
b00101 %
b1111 *
b1101 '
b1111 $
b11111 +
0)
#1661
1)
#1666
0!
b00100 %
1#
b0000 *
b1110 '
b0000 $
b00000 +
0(
0)
#1671
1)
#1676
b00011 %
0#
b0001 *
b1111 '
b0001 $
b00001 +
0)
#1681
1)
#1686
b00010 %
b0010 *
b0000 '
b0010 $
b00010 +
0)
#1691
1)
#1696
b00001 %
b0011 *
b0001 '
b0011 $
b00011 +
0)
#1701
1)
#1706
b00000 %
b0100 *
b0010 '
b0100 $
b00100 +
0)
#1711
1)
#1716
b11111 %
b0101 *
b0011 '
b0101 $
b00101 +
0)
#1721
1)
#1726
b11110 %
b0110 *
b0100 '
b0110 $
b00110 +
0)
#1731
1)
#1736
b11101 %
b0111 *
b0101 '
b0111 $
b00111 +
0)
#1741
1)
#1746
b11100 %
1&
b1000 *
b0110 '
b1000 $
b01000 +
1,
0)
#1751
1)
#1756
b11011 %
b1001 *
b0111 '
b1001 $
b01001 +
0)
#1761
1)
#1766
1!
b0011 -
b01011 %
0&
b1011 *
b1000 '
b1011 $
b11011 +
1(
0,
0)
#1771
1)
#1776
b01010 %
b1100 *
b1001 '
b1100 $
b11100 +
0)
#1781
1)
#1786
b01001 %
b1101 *
b1010 '
b1101 $
b11101 +
0)
#1791
1)
#1796
b01000 %
b1110 *
b1011 '
b1110 $
b11110 +
0)
#1801
1)
#1806
b00111 %
b1111 *
b1100 '
b1111 $
b11111 +
0)
#1811
1)
#1816
0!
b00110 %
1#
b0000 *
b1101 '
b0000 $
b00000 +
0(
0)
#1821
1)
#1826
b00101 %
0#
b0001 *
b1110 '
b0001 $
b00001 +
0)
#1831
1)
#1836
b00100 %
b0010 *
b1111 '
b0010 $
b00010 +
0)
#1841
1)
#1846
b00011 %
b0011 *
b0000 '
b0011 $
b00011 +
0)
#1851
1)
#1856
b00010 %
b0100 *
b0001 '
b0100 $
b00100 +
0)
#1861
1)
#1866
b00001 %
b0101 *
b0010 '
b0101 $
b00101 +
0)
#1871
1)
#1876
b00000 %
b0110 *
b0011 '
b0110 $
b00110 +
0)
#1881
1)
#1886
b11111 %
b0111 *
b0100 '
b0111 $
b00111 +
0)
#1891
1)
#1896
b11110 %
1&
b1000 *
b0101 '
b1000 $
b01000 +
1,
0)
#1901
1)
#1906
b11101 %
b1001 *
b0110 '
b1001 $
b01001 +
0)
#1911
1)
#1916
b11100 %
b1010 *
b0111 '
b1010 $
b01010 +
0)
#1921
1)
#1926
1!
b0100 -
b01100 %
0&
b1100 *
b1000 '
b1100 $
b11100 +
1(
0,
0)
#1931
1)
#1936
b01011 %
b1101 *
b1001 '
b1101 $
b11101 +
0)
#1941
1)
#1946
b01010 %
b1110 *
b1010 '
b1110 $
b11110 +
0)
#1951
1)
#1956
b01001 %
b1111 *
b1011 '
b1111 $
b11111 +
0)
#1961
1)
#1966
0!
b01000 %
1#
b0000 *
b1100 '
b0000 $
b00000 +
0(
0)
#1971
1)
#1976
b00111 %
0#
b0001 *
b1101 '
b0001 $
b00001 +
0)
#1981
1)
#1986
b00110 %
b0010 *
b1110 '
b0010 $
b00010 +
0)
#1991
1)
#1996
b00101 %
b0011 *
b1111 '
b0011 $
b00011 +
0)
#2001
1)
#2006
b00100 %
b0100 *
b0000 '
b0100 $
b00100 +
0)
#2011
1)
#2016
b00011 %
b0101 *
b0001 '
b0101 $
b00101 +
0)
#2021
1)
#2026
b00010 %
b0110 *
b0010 '
b0110 $
b00110 +
0)
#2031
1)
#2036
b00001 %
b0111 *
b0011 '
b0111 $
b00111 +
0)
#2041
1)
#2046
b00000 %
1&
b1000 *
b0100 '
b1000 $
b01000 +
1,
0)
#2051
1)
#2056
b11111 %
b1001 *
b0101 '
b1001 $
b01001 +
0)
#2061
1)
#2066
b11110 %
b1010 *
b0110 '
b1010 $
b01010 +
0)
#2071
1)
#2076
b11101 %
b1011 *
b0111 '
b1011 $
b01011 +
0)
#2081
1)
#2086
1!
b0101 -
b01101 %
0&
b1101 *
b1000 '
b1101 $
b11101 +
1(
0,
0)
#2091
1)
#2096
b01100 %
b1110 *
b1001 '
b1110 $
b11110 +
0)
#2101
1)
#2106
b01011 %
b1111 *
b1010 '
b1111 $
b11111 +
0)
#2111
1)
#2116
0!
b01010 %
1#
b0000 *
b1011 '
b0000 $
b00000 +
0(
0)
#2121
1)
#2126
b01001 %
0#
b0001 *
b1100 '
b0001 $
b00001 +
0)
#2131
1)
#2136
b01000 %
b0010 *
b1101 '
b0010 $
b00010 +
0)
#2141
1)
#2146
b00111 %
b0011 *
b1110 '
b0011 $
b00011 +
0)
#2151
1)
#2156
b00110 %
b0100 *
b1111 '
b0100 $
b00100 +
0)
#2161
1)
#2166
b00101 %
b0101 *
b0000 '
b0101 $
b00101 +
0)
#2171
1)
#2176
b00100 %
b0110 *
b0001 '
b0110 $
b00110 +
0)
#2181
1)
#2186
b00011 %
b0111 *
b0010 '
b0111 $
b00111 +
0)
#2191
1)
#2196
b00010 %
1&
b1000 *
b0011 '
b1000 $
b01000 +
1,
0)
#2201
1)
#2206
b00001 %
b1001 *
b0100 '
b1001 $
b01001 +
0)
#2211
1)
#2216
b00000 %
b1010 *
b0101 '
b1010 $
b01010 +
0)
#2221
1)
#2226
b11111 %
b1011 *
b0110 '
b1011 $
b01011 +
0)
#2231
1)
#2236
b11110 %
b1100 *
b0111 '
b1100 $
b01100 +
0)
#2241
1)
#2246
1!
b0110 -
b01110 %
0&
b1110 *
b1000 '
b1110 $
b11110 +
1(
0,
0)
#2251
1)
#2256
b01101 %
b1111 *
b1001 '
b1111 $
b11111 +
0)
#2261
1)
#2266
0!
b01100 %
1#
b0000 *
b1010 '
b0000 $
b00000 +
0(
0)
#2271
1)
#2276
b01011 %
0#
b0001 *
b1011 '
b0001 $
b00001 +
0)
#2281
1)
#2286
b01010 %
b0010 *
b1100 '
b0010 $
b00010 +
0)
#2291
1)
#2296
b01001 %
b0011 *
b1101 '
b0011 $
b00011 +
0)
#2301
1)
#2306
b01000 %
b0100 *
b1110 '
b0100 $
b00100 +
0)
#2311
1)
#2316
b00111 %
b0101 *
b1111 '
b0101 $
b00101 +
0)
#2321
1)
#2326
b00110 %
b0110 *
b0000 '
b0110 $
b00110 +
0)
#2331
1)
#2336
b00101 %
b0111 *
b0001 '
b0111 $
b00111 +
0)
#2341
1)
#2346
b00100 %
1&
b1000 *
b0010 '
b1000 $
b01000 +
1,
0)
#2351
1)
#2356
b00011 %
b1001 *
b0011 '
b1001 $
b01001 +
0)
#2361
1)
#2366
b00010 %
b1010 *
b0100 '
b1010 $
b01010 +
0)
#2371
1)
#2376
b00001 %
b1011 *
b0101 '
b1011 $
b01011 +
0)
#2381
1)
#2386
b00000 %
b1100 *
b0110 '
b1100 $
b01100 +
0)
#2391
1)
#2396
b11111 %
b1101 *
b0111 '
b1101 $
b01101 +
0)
#2401
1)
#2406
1!
b0111 -
b01111 %
0&
b1111 *
b1000 '
b1111 $
b11111 +
1(
0,
0)
#2411
1)
#2416
0!
b01110 %
1#
b0000 *
b1001 '
b0000 $
b00000 +
0(
0)
#2421
1)
#2426
b01101 %
0#
b0001 *
b1010 '
b0001 $
b00001 +
0)
#2431
1)
#2436
b01100 %
b0010 *
b1011 '
b0010 $
b00010 +
0)
#2441
1)
#2446
b01011 %
b0011 *
b1100 '
b0011 $
b00011 +
0)
#2451
1)
#2456
b01010 %
b0100 *
b1101 '
b0100 $
b00100 +
0)
#2461
1)
#2466
b01001 %
b0101 *
b1110 '
b0101 $
b00101 +
0)
#2471
1)
#2476
b01000 %
b0110 *
b1111 '
b0110 $
b00110 +
0)
#2481
1)
#2486
b00111 %
b0111 *
b0000 '
b0111 $
b00111 +
0)
#2491
1)
#2496
b00110 %
1&
b1000 *
b0001 '
b1000 $
b01000 +
1,
0)
#2501
1)
#2506
b00101 %
b1001 *
b0010 '
b1001 $
b01001 +
0)
#2511
1)
#2516
b00100 %
b1010 *
b0011 '
b1010 $
b01010 +
0)
#2521
1)
#2526
b00011 %
b1011 *
b0100 '
b1011 $
b01011 +
0)
#2531
1)
#2536
b00010 %
b1100 *
b0101 '
b1100 $
b01100 +
0)
#2541
1)
#2546
b00001 %
b1101 *
b0110 '
b1101 $
b01101 +
0)
#2551
1)
#2556
b00000 %
b1110 *
b0111 '
b1110 $
b01110 +
0)
#2561
1)
#2566
0!
b1000 -
b00000 %
b001 "
0&
1#
b0000 *
b1000 '
b0000 $
b10000 +
0(
0,
0)
#2571
1)
#2576
1!
b11111 %
0#
b1111 *
b1001 '
b1111 $
b10001 +
1(
0)
#2581
1)
#2586
b11110 %
b1110 *
b1010 '
b1110 $
b10010 +
0)
#2591
1)
#2596
b11101 %
b1101 *
b1011 '
b1101 $
b10011 +
0)
#2601
1)
#2606
b11100 %
b1100 *
b1100 '
b1100 $
b10100 +
0)
#2611
1)
#2616
b11011 %
b1011 *
b1101 '
b1011 $
b10101 +
0)
#2621
1)
#2626
b11010 %
b1010 *
b1110 '
b1010 $
b10110 +
0)
#2631
1)
#2636
b11001 %
b1001 *
b1111 '
b1001 $
b10111 +
0)
#2641
1)
#2646
b11000 %
b1000 *
b0000 '
b1000 $
b11000 +
0)
#2651
1)
#2656
b10111 %
1&
b0111 *
b0001 '
b0111 $
b11001 +
1,
0)
#2661
1)
#2666
b10110 %
b0110 *
b0010 '
b0110 $
b11010 +
0)
#2671
1)
#2676
b10101 %
b0101 *
b0011 '
b0101 $
b11011 +
0)
#2681
1)
#2686
b10100 %
b0100 *
b0100 '
b0100 $
b11100 +
0)
#2691
1)
#2696
b10011 %
b0011 *
b0101 '
b0011 $
b11101 +
0)
#2701
1)
#2706
b10010 %
b0010 *
b0110 '
b0010 $
b11110 +
0)
#2711
1)
#2716
b10001 %
b0001 *
b0111 '
b0001 $
b11111 +
0)
#2721
1)
#2726
0!
b1001 -
b00001 %
0&
b0001 *
b1000 '
b0001 $
b10001 +
0(
0,
0)
#2731
1)
#2736
b00000 %
1#
b0000 *
b1001 '
b0000 $
b10010 +
0)
#2741
1)
#2746
1!
b11111 %
0#
b1111 *
b1010 '
b1111 $
b10011 +
1(
0)
#2751
1)
#2756
b11110 %
b1110 *
b1011 '
b1110 $
b10100 +
0)
#2761
1)
#2766
b11101 %
b1101 *
b1100 '
b1101 $
b10101 +
0)
#2771
1)
#2776
b11100 %
b1100 *
b1101 '
b1100 $
b10110 +
0)
#2781
1)
#2786
b11011 %
b1011 *
b1110 '
b1011 $
b10111 +
0)
#2791
1)
#2796
b11010 %
b1010 *
b1111 '
b1010 $
b11000 +
0)
#2801
1)
#2806
b11001 %
b1001 *
b0000 '
b1001 $
b11001 +
0)
#2811
1)
#2816
b11000 %
b1000 *
b0001 '
b1000 $
b11010 +
0)
#2821
1)
#2826
b10111 %
1&
b0111 *
b0010 '
b0111 $
b11011 +
1,
0)
#2831
1)
#2836
b10110 %
b0110 *
b0011 '
b0110 $
b11100 +
0)
#2841
1)
#2846
b10101 %
b0101 *
b0100 '
b0101 $
b11101 +
0)
#2851
1)
#2856
b10100 %
b0100 *
b0101 '
b0100 $
b11110 +
0)
#2861
1)
#2866
b10011 %
b0011 *
b0110 '
b0011 $
b11111 +
0)
#2871
1)
#2876
b10010 %
b0010 *
b0111 '
b0010 $
b00000 +
0)
#2881
1)
#2886
0!
b1010 -
b00010 %
0&
b0010 *
b1000 '
b0010 $
b10010 +
0(
0,
0)
#2891
1)
#2896
b00001 %
b0001 *
b1001 '
b0001 $
b10011 +
0)
#2901
1)
#2906
b00000 %
1#
b0000 *
b1010 '
b0000 $
b10100 +
0)
#2911
1)
#2916
1!
b11111 %
0#
b1111 *
b1011 '
b1111 $
b10101 +
1(
0)
#2921
1)
#2926
b11110 %
b1110 *
b1100 '
b1110 $
b10110 +
0)
#2931
1)
#2936
b11101 %
b1101 *
b1101 '
b1101 $
b10111 +
0)
#2941
1)
#2946
b11100 %
b1100 *
b1110 '
b1100 $
b11000 +
0)
#2951
1)
#2956
b11011 %
b1011 *
b1111 '
b1011 $
b11001 +
0)
#2961
1)
#2966
b11010 %
b1010 *
b0000 '
b1010 $
b11010 +
0)
#2971
1)
#2976
b11001 %
b1001 *
b0001 '
b1001 $
b11011 +
0)
#2981
1)
#2986
b11000 %
b1000 *
b0010 '
b1000 $
b11100 +
0)
#2991
1)
#2996
b10111 %
1&
b0111 *
b0011 '
b0111 $
b11101 +
1,
0)
#3001
1)
#3006
b10110 %
b0110 *
b0100 '
b0110 $
b11110 +
0)
#3011
1)
#3016
b10101 %
b0101 *
b0101 '
b0101 $
b11111 +
0)
#3021
1)
#3026
b10100 %
b0100 *
b0110 '
b0100 $
b00000 +
0)
#3031
1)
#3036
b10011 %
b0011 *
b0111 '
b0011 $
b00001 +
0)
#3041
1)
#3046
0!
b1011 -
b00011 %
0&
b0011 *
b1000 '
b0011 $
b10011 +
0(
0,
0)
#3051
1)
#3056
b00010 %
b0010 *
b1001 '
b0010 $
b10100 +
0)
#3061
1)
#3066
b00001 %
b0001 *
b1010 '
b0001 $
b10101 +
0)
#3071
1)
#3076
b00000 %
1#
b0000 *
b1011 '
b0000 $
b10110 +
0)
#3081
1)
#3086
1!
b11111 %
0#
b1111 *
b1100 '
b1111 $
b10111 +
1(
0)
#3091
1)
#3096
b11110 %
b1110 *
b1101 '
b1110 $
b11000 +
0)
#3101
1)
#3106
b11101 %
b1101 *
b1110 '
b1101 $
b11001 +
0)
#3111
1)
#3116
b11100 %
b1100 *
b1111 '
b1100 $
b11010 +
0)
#3121
1)
#3126
b11011 %
b1011 *
b0000 '
b1011 $
b11011 +
0)
#3131
1)
#3136
b11010 %
b1010 *
b0001 '
b1010 $
b11100 +
0)
#3141
1)
#3146
b11001 %
b1001 *
b0010 '
b1001 $
b11101 +
0)
#3151
1)
#3156
b11000 %
b1000 *
b0011 '
b1000 $
b11110 +
0)
#3161
1)
#3166
b10111 %
1&
b0111 *
b0100 '
b0111 $
b11111 +
1,
0)
#3171
1)
#3176
b10110 %
b0110 *
b0101 '
b0110 $
b00000 +
0)
#3181
1)
#3186
b10101 %
b0101 *
b0110 '
b0101 $
b00001 +
0)
#3191
1)
